Well	IgG1	IgM	CFP	GFP	YFP	RFP	INDEX
A01	63	12			YFP	RFP	Index1
A02	85	18				RFP	Index2
A03	708	321	CFP		YFP	RFP	Index3
A04	173	728		GFP	YFP		Index4
A05	5,728	240		GFP	YFP	RFP	Index5
A06	4,917	296				RFP	Index6
A07	135	48				RFP	Index7
A08	-61	182		GFP			Index8
A09	534	13	CFP		YFP	RFP	Index9
A10	4	101			YFP	RFP	Index10
A11	255	228			YFP	RFP	Index11
A12	328	62				RFP	Index12
B01	198	134			YFP	RFP	Index13
B02	161	-43			YFP	RFP	Index14
B03	536	175	CFP		YFP	RFP	Index15
B04	209	131					Index16
B05	561	86	CFP		YFP	RFP	Index17
B06	990	153	CFP		YFP	RFP	Index18
B07	-66	96			YFP	RFP	Index19
B08	143	2			YFP	RFP	Index20
B09	57	158			YFP	RFP	Index21
B10	848	227	CFP		YFP	RFP	Index22
B11	125	2			YFP	RFP	Index23
B12	218	3				RFP	Index24
C01	-59	50				RFP	Index25
C02	268	52			YFP	RFP	Index26
C03	-10	83			YFP	RFP	Index27
C04	229	199		GFP	YFP		Index28
C05	1,015	116	CFP		YFP	RFP	Index29
C06	869	147	CFP				Index30
C07	698	395	CFP			RFP	Index31
C08	84	105			YFP	RFP	Index32
C09	289	238		GFP		RFP	Index33
C10	231	86	CFP			RFP	Index34
C11	130	108			YFP	RFP	Index35
C12	480	63	CFP		YFP	RFP	Index36
D01	227	51			YFP	RFP	Index37
D02	528	486	CFP	GFP	YFP	RFP	Index38
D03	148	36			YFP	RFP	Index39
D04	479	275	CFP		YFP	RFP	Index40
D05	459	199	CFP			RFP	Index41
D06	89	-16			YFP	RFP	Index42
D07	187	111			YFP	RFP	Index43
D08	245	39			YFP	RFP	Index44
D09	558	162	CFP		YFP	RFP	Index45
D10	182	622		GFP	YFP		Index46
D11	-75	171			YFP	RFP	Index47
D12	287	1,875		GFP			Index48
E01	375	67	CFP				Index49
E02	191	25			YFP	RFP	Index50
E03	243	382		GFP	YFP	RFP	Index51
E04	-39	85			YFP	RFP	Index52
E05	39	440		GFP	YFP		Index53
E06	277	63	CFP	GFP	YFP	RFP	Index54
E07	177	-50		GFP	YFP		Index55
E08	214	-3			YFP	RFP	Index56
E09	43	62		GFP	YFP	RFP	Index57
E10	empty well?						Index58
E11	empty well						Index59
E12	empty well						Index60
F01	empty well						Index61
F02	empty well						Index62
F03	empty well						Index63
F04	empty well						Index64
F05	empty well						Index65
F06	empty well						Index66
F07	empty well						Index67
F08	empty well						Index68
F09	empty well						Index69
F10	empty well						Index70
F11	empty well						Index71
F12	empty well						Index72
G01	empty well						Index73
G02	empty well						Index74
G03	empty well						Index75
G04	empty well						Index76
G05	empty well						Index77
G06	empty well						Index78
G07	empty well						Index79
G08	empty well						Index80
G09	empty well						Index81
G10	empty well						Index82
G11	empty well						Index83
G12	empty well						Index84
H01	empty well						Index85
H02	empty well						Index86
H03	empty well						Index87
H04	empty well						Index88
H05	empty well						Index89
H06	empty well						Index90
H07	empty well						Index91
H08	empty well						Index92
H09	empty well						Index93
H10	empty well						Index94
H11	empty well						Index95
H12	empty well						Index96
