Well	IgG1	IgM	CFP	GFP	YFP	RFP	INDEX
A01	1,983	58		GFP			Index1
A02	606	182	CFP			RFP	Index2
A03	1,409	61	CFP	GFP	YFP		Index3
A04	216	258		GFP	YFP		Index4
A05	2,329	64	CFP	GFP	YFP		Index5
A06	502	116	CFP			RFP	Index6
A07	1,431	196	CFP		YFP	RFP	Index7
A08	653	898	CFP			RFP	Index8
A09	1,490	130		GFP	YFP	RFP	Index9
A10	117	-58			YFP	RFP	Index10
A11	554	7	CFP				Index11
A12	262	454		GFP	YFP	RFP	Index12
B01	113	88		GFP		RFP	Index13
B02	755	437	CFP		YFP	RFP	Index14
B03	118	333		GFP	YFP		Index15
B04	590	446		GFP	YFP	RFP	Index16
B05	132	331		GFP		RFP	Index17
B06	861	373	CFP	GFP	YFP	RFP	Index18
B07	247	184		GFP	YFP	RFP	Index19
B08	101	-52		GFP		RFP	Index20
B09	112	123		GFP	YFP		Index21
B10	38	481		GFP			Index22
B11	769	57	CFP				Index23
B12	1,512	33	CFP	GFP	YFP		Index24
C01	1,862	279	CFP	GFP	YFP		Index25
C02	654	154	CFP				Index26
C03	108	-6		GFP	YFP	RFP	Index27
C04	6,961	287	CFP	GFP	YFP		Index28
C05	2,192	23	CFP	GFP	YFP		Index29
C06	328	202		GFP		RFP	Index30
C07	148	198		GFP		RFP	Index31
C08	276	247		GFP	YFP	RFP	Index32
C09	956	372		GFP			Index33
C10	891	184			YFP	RFP	Index34
C11	169	25		GFP	YFP	RFP	Index35
C12	14,999	407	CFP	GFP	YFP		Index36
D01	86	111			YFP	RFP	Index37
D02	1,089	149	CFP	GFP	YFP		Index38
D03	11,157	80		GFP	YFP		Index39
D04	1,204	115	CFP			RFP	Index40
D05	857	94	CFP			RFP	Index41
D06	112	224		GFP	YFP	RFP	Index42
D07	5,526	75	CFP	GFP	YFP		Index43
D08	1,339	-5	CFP	GFP	YFP		Index44
D09	1,253	183	CFP	GFP	YFP		Index45
D10	119	-44		GFP	YFP		Index46
D11	4,281	-8		GFP	YFP		Index47
D12	1,587	257	CFP			RFP	Index48
E01	407	193		GFP		RFP	Index49
E02	107	231			YFP	RFP	Index50
E03	-36	2,337			YFP	RFP	Index51
E04	4,564	81	CFP	GFP	YFP		Index52
E05	203	392		GFP	YFP		Index53
E06	1,965	342	CFP		YFP	RFP	Index54
E07	698	97	CFP				Index55
E08	173	141		GFP		RFP	Index56
E09	1,659	81	CFP			RFP	Index57
E10	462	5		GFP	YFP		Index58
E11	95	45		GFP	YFP		Index59
E12	139	205		GFP	YFP		Index60
F01	-16	100		GFP	YFP	RFP	Index61
F02	82	241		GFP	YFP	RFP	Index62
F03	1,365	302	CFP	GFP	YFP		Index63
F04	63	209		GFP			Index64
F05	2,005	53	CFP	GFP	YFP		Index65
F06	494	-47		GFP	YFP	RFP	Index66
F07	461	894	CFP	GFP	YFP		Index67
F08	288	271				RFP	Index68
F09	5	48		GFP		RFP	Index69
F10	136	359		GFP		RFP	Index70
F11	919	383	CFP		YFP	RFP	Index71
F12	11,708	198	CFP	GFP	YFP		Index72
G01	590	-23		GFP	YFP		Index73
G02	143	1		GFP	YFP	RFP	Index74
G03	188	4			YFP	RFP	Index75
G04	2,802	96	CFP	GFP	YFP		Index76
G05	93	20		GFP		RFP	Index77
G06	6,109	600					Index78
G07	200	198			YFP	RFP	Index79
G08	1,113	115	CFP	GFP	YFP		Index80
G09	1,821	62	CFP	GFP	YFP		Index81
G10	164	65	CFP	GFP		RFP	Index82
G11	1,495	447	CFP		YFP	RFP	Index83
G12	3,431	156	CFP	GFP	YFP		Index84
H01	empty well						Index85
H02	empty well						Index86
H03	empty well						Index87
H04	empty well						Index88
H05	empty well						Index89
H06	empty well						Index90
H07	empty well						Index91
H08	empty well						Index92
H09	empty well						Index93
H10	empty well?						Index94
H11	28	139	CFP	GFP	YFP		Index95
H12	15,370	196		GFP	YFP		Index96
