Well	IgG1	IgM	CFP	GFP	YFP	RFP	INDEX
A01	1,245	163	CFP				Index1
A02	1,516	415	CFP			RFP	Index2
A03	94	172		GFP		RFP	Index3
A04	122	704				RFP	Index4
A05	427	162		GFP		RFP	Index5
A06	375	262		GFP		RFP	Index6
A07	206	163		GFP	YFP		Index7
A08	125	253		GFP	YFP		Index8
A09	100	364		GFP		RFP	Index9
A10	52	496				RFP	Index10
A11	286	191		GFP			Index11
A12	-83	74		GFP	YFP		Index12
B01	386	-38	CFP			RFP	Index13
B02	69	-25		GFP		RFP	Index14
B03	33	281				RFP	Index15
B04	749	30	CFP	GFP			Index16
B05	245	246		GFP	YFP		Index17
B06	-170	275				RFP	Index18
B07	-19	225				RFP	Index19
B08	1,025	71	CFP	GFP	YFP	RFP	Index20
B09	205	92		GFP	YFP	RFP	Index21
B10	496	259	CFP			RFP	Index22
B11	1,650	532	CFP			RFP	Index23
B12	43	-3		GFP	YFP		Index24
C01	1,353	68	CFP				Index25
C02	39	-20	CFP	GFP	YFP		Index26
C03	340	21		GFP		RFP	Index27
C04	16	115		GFP	YFP		Index28
C05	158	-3		GFP		RFP	Index29
C06	132	470		GFP	YFP		Index30
C07	1,052	76	CFP	GFP			Index31
C08	618	116	CFP	GFP		RFP	Index32
C09	947	582	CFP			RFP	Index33
C10	110	123		GFP	YFP		Index34
C11	1,149	513	CFP	GFP	YFP		Index35
C12	15	235				RFP	Index36
D01	395	121					Index37
D02	-32	87		GFP	YFP		Index38
D03	88	437		GFP			Index39
D04	1,629	446	CFP			RFP	Index40
D05	164	45		GFP	YFP		Index41
D06	782	-2	CFP			RFP	Index42
D07	139	203				RFP	Index43
D08	152	-10		GFP	YFP		Index44
D09	600	284	CFP	GFP		RFP	Index45
D10	1,194	160	CFP				Index46
D11	310	30	CFP				Index47
D12	247	69					Index48
E01	27	-48		GFP			Index49
E02	1,855	18		GFP		RFP	Index50
E03	-6	-25		GFP	YFP		Index51
E04	388	146	CFP			RFP	Index52
E05	1,128	339	CFP				Index53
E06	131	-4	CFP	GFP	YFP		Index54
E07	-2	247				RFP	Index55
E08	136	58					Index56
E09	-142	303		GFP		RFP	Index57
E10	468	65	CFP				Index58
E11	43	26		GFP		RFP	Index59
E12	143	435				RFP	Index60
F01	69	149		GFP			Index61
F02	10,756	122	CFP	GFP		RFP	Index62
F03	7	-62		GFP	YFP		Index63
F04	150	89				RFP	Index64
F05	33	191		GFP	YFP		Index65
F06	-218	367		GFP			Index66
F07	97	49		GFP	YFP		Index67
F08	135	-8	CFP	GFP	YFP		Index68
F09	62	5	CFP	GFP	YFP		Index69
F10	42	269		GFP			Index70
F11	-123	-18		GFP	YFP		Index71
F12	1,159	13	CFP	GFP	YFP		Index72
G01	1,776	745	CFP				Index73
G02	167	296				RFP	Index74
G03	217	17		GFP		RFP	Index75
G04	849	97	CFP			RFP	Index76
G05	94	686		GFP	YFP		Index77
G06	130	357		GFP	YFP		Index78
G07	61	769		GFP		RFP	Index79
G08	66	189		GFP	YFP		Index80
G09	58	150		GFP	YFP		Index81
G10	8,951	131		GFP		RFP	Index82
G11	-58	-61		GFP	YFP		Index83
G12	38	257		GFP	YFP		Index84
H01	empty well						Index85
H02	empty well						Index86
H03	212	78			YFP		Index87
H04	-26	114	CFP	GFP	YFP		Index88
H05	-10	76		GFP		RFP	Index89
H06	21	199		GFP	YFP		Index90
H07	172	37				RFP	Index91
H08	79	144		GFP	YFP		Index92
H09	224	145			YFP	RFP	Index93
H10	80	535		GFP		RFP	Index94
H11	1,890	341	CFP				Index95
H12	264	65		GFP		RFP	Index96
