Well,IgG1,IgM,CXCR4,CD86
A01,39,89,671,239
A02,151,24,162,85
A03,149,4,37,229
A04,1,43,78,199
A05,56,45,269,181
A06,17,55,269,165
A07,12,43,488,104
A08,115,20,321,55
A09,3,18,13,73
A10,37,69,31,394
A11,65,30,243,159
A12,30,126,53,854
B01,1,43,155,409
B02,146,70,134,84
B03,5,77,98,172
B04,1,40,34,103
B05,246,15,31,119
B06,1,28,52,337
B07,2,4,214,95
B08,416,21,39,159
B09,194,17,333,138
B10,38,40,109,287
B11,25,30,29,393
B12,22,24,76,103
C01,184,7,153,116
C02,691,54,9,430
C03,1,89,40,247
C04,1,14,63,398
C05,30,102,286,234
C06,64,67,152,923
C07,25,77,96,222
C08,189,21,80,308
C09,123,23,45,104
C10,116,18,91,287
C11,1,31,215,23
C12,7,109,43,225
D01,269,52,49,382
D02,13,123,207,622
D03,53,28,38,201
D04,303,32,443,103
D05,6,17,326,218
D06,29,77,159,373
D07,20,13,328,38
D08,366,28,92,34
D09,3,12,25,310
D10,89,24,96,526
D11,13,125,405,592
D12,32,21,261,102
E01,3,122,36,259
E02,45,25,182,54
E03,216,13,22,297
E04,683,9,16,577
E05,19,39,57,701
E06,131,38,126,182
E07,150,40,227,68
E08,1,67,5,175
E09,236,42,532,372
E10,35,67,234,144
E11,24,17,149,450
E12,14,19,29,312
F01,167,2,85,536
F02,1,126,328,114
F03,24,1,625,87
F04,2,61,191,115
F05,50,120,142,328
F06,272,14,256,454
F07,128,45,119,375
F08,7,46,18,416
F09,285,9,81,156
F10,16,65,72,630
F11,1,39,168,59
F12,129,22,211,386
G01,124,24,68,600
G02,32,4,373,52
G03,326,18,80,42
G04,88,10,241,9
G05,214,29,56,243
G06,309,3,2,443
G07,36,8,76,251
G08,29,29,572,84
G09,108,36,254,94
G10,1,110,177,269
G11,404,34,30,350
G12,3,8,487,30
H01,14,13,343,28
H02,218,16,83,371
H03,157,11,84,47
H04,117,18,30,384
H05,37,38,185,24
H06,12,23,109,87
H07,21,107,90,691
H08,142,16,26,270
H09,48,70,209,395
H10,261,31,45,316
H11,342,20,90,117
H12,585,33,117,152
