Well,IgG1,IgM,CXCR4,CD86
A01,22,31,51,454
A02,1,16,449,9
A03,4,32,398,220
A04,46,7,102,342
A05,1,24,121,874
A06,14,6,88,252
A07,12,17,474,122
A08,1,18,111,225
A09,1,31,22,292
A10,5,22,509,91
A11,5,1,243,56
A12,1,39,40,42
B01,5,31,156,52
B02,4,8,140,627
B03,1,39,78,172
B04,5,19,303,35
B05,17,23,431,32
B06,6,18,84,505
B07,3,23,249,113
B08,6,11,309,62
B09,1,36,369,30
B10,1,50,344,51
B11,17,36,26,903
B12,15,36,211,168
C01,7,11,467,18
C02,1,34,791,59
C03,29,19,56,71
C04,11,10,491,59
C05,1,10,285,145
C06,8,18,502,126
C07,8,30,221,140
C08,9,42,66,248
C09,6,43,113,498
C10,24,13,387,128
C11,11,11,867,76
C12,42,19,209,32
D01,4,17,93,123
D02,3,11,338,44
D03,1,31,788,127
D04,5,20,282,157
D05,18,11,36,249
D06,24,15,39,609
D07,2,78,671,125
D08,1,14,505,321
D09,38,13,662,169
D10,14,26,272,132
D11,8,23,216,478
D12,6,36,453,186
E01,9,29,19,431
E02,2,20,131,119
E03,21,15,666,2617
E04,27,13,44,54
E05,25,16,431,118
E06,6,29,274,123
E07,2,38,647,36
E08,1,29,115,433
E09,75,17,296,79
E10,25,22,126,180
E11,5,27,64,203
E12,5,22,59,234
F01,4,47,30,173
F02,18,16,450,74
F03,4,13,102,183
F04,3,11,62,621
F05,28,23,393,55
F06,9,9,225,110
F07,14,18,394,30
F08,12,30,216,608
F09,25,37,195,26
F10,10,30,563,26
F11,9,17,109,448
F12,256,17,32,69
G01,16,11,585,155
G02,1,39,209,246
G03,12,10,264,793
G04,13,15,312,72
G05,9,52,803,210
G06,3,14,510,171
G07,NaN,NaN,NaN,NaN
G08,9,24,124,194
G09,14,10,236,89
G10,7,10,189,130
G11,5,18,235,27
G12,4,9,364,62
H01,4,12,710,147
H02,28,20,328,1987
H03,16,9,190,139
H04,50,14,17,212
H05,1,25,373,175
H06,4,43,265,156
H07,2,16,58,110
H08,23,26,314,405
H09,18,20,481,251
H10,2,9,500,28
H11,29,25,400,206
H12,19,25,360,392
