Well,IgG1,IgM,CXCR4,CD86
A01,32,7,355,21
A02,15,3,472,153
A03,75,26,173,137
A04,17,16,337,17
A05,5,22,664,169
A06,21,16,132,101
A07,9,15,29,40
A08,68,9,200,178
A09,2,14,25,139
A10,1,46,200,356
A11,11,10,236,6
A12,12,26,262,33
B01,18,45,184,261
B02,41,13,237,136
B03,25,15,292,40
B04,23,26,83,202
B05,14,25,398,20
B06,9,23,171,113
B07,226,46,330,63
B08,23,13,620,164
B09,8,17,256,238
B10,74,17,664,234
B11,90,17,139,61
B12,15,33,467,19
C01,22,2,369,27
C02,5,5,61,305
C03,42,23,195,239
C04,12,69,399,585
C05,38,28,388,201
C06,9,17,280,94
C07,17,5,278,45
C08,11,29,259,60
C09,113,47,127,184
C10,116,16,598,141
C11,31,29,280,93
C12,25,52,371,100
D01,15,12,245,26
D02,81,31,522,36
D03,7,1,129,61
D04,50,8,426,32
D05,45,43,290,406
D06,169,68,292,306
D07,4,57,483,89
D08,1,72,327,260
D09,6,30,356,30
D10,106,7,327,86
D11,1,56,281,538
D12,21,8,144,53
E01,1,18,122,9
E02,14,53,435,117
E03,24,6,389,184
E04,23,51,33,123
E05,77,2,267,39
E06,52,39,182,36
E07,63,17,197,28
E08,2,31,45,50
E09,83,35,148,69
E10,27,47,570,196
E11,33,2,278,115
E12,45,17,328,124
F01,39,14,233,66
F02,1,28,197,185
F03,45,33,253,134
F04,6,29,192,237
F05,33,48,419,6
F06,1,48,73,62
F07,15,31,342,50
F08,76,16,238,232
F09,1,8,139,40
F10,24,16,197,213
F11,16,64,211,70
F12,187,22,276,136
G01,8,36,133,123
G02,115,19,287,170
G03,95,45,145,240
G04,43,41,287,54
G05,1,9,392,58
G06,24,22,334,240
G07,32,80,149,214
G08,5,31,314,76
G09,NaN,NaN,NaN,NaN
G10,14,8,347,73
G11,2,15,222,31
G12,33,8,207,228
H01,49,33,215,33
H02,7,2,399,70
H03,51,43,134,132
H04,56,15,406,67
H05,6,32,392,86
H06,36,1,68,182
H07,33,8,153,46
H08,19,58,251,112
H09,30,2,219,86
H10,4,33,300,75
H11,48,48,426,327
H12,12,39,290,59
