Well,IgG1,IgM,CXCR4,CD86
A01,36,1,11,156
A02,7,79,16,297
A03,17,21,24,55
A04,11,36,12,110
A05,20,33,58,106
A06,24,17,315,48
A07,12,30,121,691
A08,29,24,39,182
A09,12,20,15,85
A10,19,8,106,347
A11,37,8,22,33
A12,1,72,68,218
B01,16,34,32,798
B02,7,25,40,215
B03,30,10,46,33
B04,14,9,103,245
B05,54,28,6,193
B06,9,27,16,58
B07,7,9,32,198
B08,25,13,17,63
B09,21,4,23,48
B10,10,31,5,226
B11,23,34,60,600
B12,38,30,33,245
C01,1,11,203,68
C02,4,25,96,200
C03,12,38,405,300
C04,41,40,178,107
C05,3,60,34,279
C06,9,9,30,154
C07,3,17,89,460
C08,26,5,73,175
C09,25,21,18,176
C10,41,13,31,126
C11,16,56,56,51
C12,16,13,14,113
D01,21,31,286,43
D02,10,17,107,230
D03,6,25,42,78
D04,14,45,8,189
D05,1,14,140,177
D06,9,35,40,146
D07,7,32,136,128
D08,12,8,15,113
D09,14,2,68,144
D10,29,4,1,471
D11,5,52,99,367
D12,30,19,212,142
E01,48,5,37,119
E02,3,18,25,290
E03,45,6,5,23
E04,103,26,12,141
E05,1,29,37,76
E06,46,17,245,18
E07,45,41,43,119
E08,6,15,40,71
E09,34,4,3,151
E10,1,12,63,232
E11,9,42,12,303
E12,14,10,83,151
F01,47,33,44,287
F02,5,32,123,245
F03,11,18,63,197
F04,3,51,46,185
F05,15,33,9,204
F06,5,17,56,193
F07,5,4,80,242
F08,43,30,8,99
F09,2,31,59,471
F10,4,18,35,146
F11,74,4,17,270
F12,45,47,130,356
G01,40,11,21,214
G02,52,4,37,186
G03,1,20,40,270
G04,2,5,46,535
G05,55,12,17,135
G06,52,29,135,101
G07,1,9,119,14
G08,13,31,173,228
G09,29,3,164,56
G10,72,40,39,416
G11,13,48,216,87
G12,32,12,48,280
H01,5,13,283,553
H02,63,22,2,109
H03,16,30,103,82
H04,20,8,179,167
H05,40,49,44,122
H06,28,21,93,81
H07,21,20,126,307
H08,39,39,49,276
H09,6,18,66,358
H10,24,7,33,101
H11,15,41,89,93
H12,19,22,28,127
