Well,IgG1,IgM,CXCR4,CD86
A01,21,31,353,82
A02,31,30,179,80
A03,10,30,94,96
A04,1,56,322,201
A05,8,15,207,181
A06,264,13,116,154
A07,16,43,97,34
A08,29,8,155,89
A09,159,26,347,971
A10,10,5,96,247
A11,42,8,359,66
A12,12,9,268,28
B01,200,22,31,141
B02,22,26,76,90
B03,32,18,312,131
B04,8,9,225,83
B05,22,14,175,314
B06,21,34,258,69
B07,27,14,155,165
B08,21,20,644,93
B09,22,4,146,77
B10,10,7,27,420
B11,175,8,66,273
B12,5,1,25,34
C01,24,14,40,187
C02,3,23,80,347
C03,12,20,114,10
C04,5,39,386,61
C05,1,15,310,10
C06,3,15,82,331
C07,38,2,54,162
C08,1,8,161,133
C09,38,12,136,153
C10,6,30,66,14
C11,2,31,322,12
C12,1,12,12,243
D01,5,83,46,400
D02,17,19,397,176
D03,3,13,131,19
D04,6,3,22,165
D05,6,19,122,92
D06,8,3,322,14
D07,7,26,173,76
D08,6,51,15,116
D09,10,10,74,109
D10,3,43,24,287
D11,47,11,201,60
D12,40,43,232,41
E01,15,23,37,146
E02,7,12,101,103
E03,14,24,207,265
E04,54,39,223,8
E05,39,33,114,135
E06,3,15,157,43
E07,27,5,5,75
E08,132,15,27,261
E09,82,30,141,222
E10,10,29,218,231
E11,74,12,19,133
E12,1,27,158,188
F01,8,26,58,106
F02,52,3,162,106
F03,26,1,95,358
F04,17,33,54,198
F05,7,11,165,498
F06,3,20,80,296
F07,92,7,111,50
F08,3,20,123,264
F09,11,18,229,209
F10,16,18,135,3
F11,32,119,211,166
F12,79,25,74,742
G01,159,1,37,179
G02,104,24,262,40
G03,1,19,138,247
G04,7,23,44,52
G05,22,15,467,33
G06,23,14,31,376
G07,28,19,167,171
G08,4,21,164,115
G09,12,2,57,43
G10,30,22,82,207
G11,6,19,49,203
G12,9,12,342,172
H01,43,45,235,84
H02,37,15,109,39
H03,91,15,201,526
H04,133,9,69,86
H05,1,12,22,377
H06,57,30,134,160
H07,12,18,56,220
H08,9,17,187,287
H09,42,1,17,427
H10,7,9,23,265
H11,36,19,239,92
H12,142,4,27,77
